{
	"info": {
		"_postman_id": "72700d23-8141-4b5b-97fa-13754d5b98b6",
		"name": "PROJECT_API_IADB",
		"description": "**Deskripsi**\n\nIADB adalah api yang berisi muatan data aktor dan aktris yang biasanya bermain film. IADB akan menampilkan seluruh biodata tersebut beserta berita - berita terakhir yang dialami oleh aktris tersebut\n\n\n**Kelompok :**\n1. Mardhan Krinabayu (216310351)\n2. Erick Christiansen (217310379)\n3. Samuel Suhan Putra (217310387)\n4. Timotius Kevin (217310389)",
		"schema": "https://schema.getpostman.com/json/collection/v2.1.0/collection.json"
	},
	"item": [
		{
			"name": "User",
			"item": [
				{
					"name": "register",
					"request": {
						"method": "POST",
						"header": [
							{
								"key": "Content-Type",
								"name": "Content-Type",
								"value": "application/json",
								"type": "text"
							}
						],
						"body": {
							"mode": "raw",
							"raw": "{\n\t\"email_user\":\"guest@email.com\",\n\t\"nama_user\":\"guest\",\n\t\"password_user\":\"123\"\n}",
							"options": {
								"raw": {
									"language": "json"
								}
							}
						},
						"url": {
							"raw": "{{url}}register",
							"host": [
								"{{url}}register"
							]
						},
						"description": "**Deskripsi**\n\nRegister memasukkan data user baru dan memberikan api key untuk user tersebut. Sehingga dapat mengakses IADB secara gratis."
					},
					"response": []
				},
				{
					"name": "login",
					"request": {
						"method": "POST",
						"header": [
							{
								"key": "Content-Type",
								"name": "Content-Type",
								"value": "application/json",
								"type": "text"
							}
						],
						"body": {
							"mode": "raw",
							"raw": "{\n\t\"email_user\":\"guest@email.com\",\n\t\"password_user\":\"123\"\n}",
							"options": {
								"raw": {
									"language": "json"
								}
							}
						},
						"url": {
							"raw": "{{url}}login",
							"host": [
								"{{url}}login"
							]
						},
						"description": "**Deskripsi**\n\nMenampilkan api key untuk akses IADb dan membuka akses insert, update, delete"
					},
					"response": []
				}
			],
			"description": "Post login dan register",
			"protocolProfileBehavior": {}
		},
		{
			"name": "Movies",
			"item": [
				{
					"name": "get movies",
					"request": {
						"method": "GET",
						"header": [
							{
								"key": "",
								"value": "",
								"type": "text"
							}
						],
						"url": {
							"raw": "{{url}}movies?api_key=token&nama_movies=Avengers Infinity War",
							"host": [
								"{{url}}movies"
							],
							"query": [
								{
									"key": "api_key",
									"value": "token",
									"description": "Berisi token untuk authorisasi yang didapat dari login"
								},
								{
									"key": "nama_movies",
									"value": "Avengers Infinity War"
								}
							]
						},
						"description": "**Deskripsi**\n\nMenampilkan detail film. Dengan deskripsi aktornya dalam bentuk JSON Array yang berisi :\n1. Nama Aktor\n2. Kewarganegaraan\n3. Jenis Kelamin"
					},
					"response": []
				},
				{
					"name": "post movies",
					"request": {
						"method": "POST",
						"header": [
							{
								"key": "Content-Type",
								"name": "Content-Type",
								"type": "text",
								"value": "application/json"
							}
						],
						"body": {
							"mode": "raw",
							"raw": "{\n\t\"nama_movies\":\"Escape Plan\"\n}",
							"options": {
								"raw": {
									"language": "json"
								}
							}
						},
						"url": {
							"raw": "{{url}}movies?api_key=token",
							"host": [
								"{{url}}movies"
							],
							"query": [
								{
									"key": "api_key",
									"value": "token",
									"description": "Berisi token untuk authorisasi yang didapat dari login"
								}
							]
						},
						"description": "**Deskripsi**\n\nMemasukkan film yang diinginkan. Dan hanya yang memiliki akses admin yang dapat memasukkan film"
					},
					"response": []
				},
				{
					"name": "put movies",
					"request": {
						"method": "PUT",
						"header": [
							{
								"key": "Content-Type",
								"name": "Content-Type",
								"value": "application/json",
								"type": "text"
							}
						],
						"body": {
							"mode": "raw",
							"raw": "{\n\t\"nama_movies\":\"Frozen\"\n}",
							"options": {
								"raw": {
									"language": "json"
								}
							}
						},
						"url": {
							"raw": "{{url}}movies/:id_movies?api_key=token",
							"host": [
								"{{url}}movies"
							],
							"path": [
								":id_movies"
							],
							"query": [
								{
									"key": "api_key",
									"value": "token",
									"description": "Berisi token untuk authorisasi yang didapat dari login"
								}
							],
							"variable": [
								{
									"key": "id_movies",
									"value": "M1907",
									"description": "Masukkan id_movies yang mau diubah"
								}
							]
						},
						"description": "**Deskripsi**\n\nMengubah film yang diinginkan. Dan hanya yang memiliki akses admin yang dapat mengubah"
					},
					"response": []
				},
				{
					"name": "delete movies",
					"request": {
						"method": "DELETE",
						"header": [],
						"url": {
							"raw": "{{url}}movies/:id_movies?api_key=token",
							"host": [
								"{{url}}movies"
							],
							"path": [
								":id_movies"
							],
							"query": [
								{
									"key": "api_key",
									"value": "token",
									"description": "Berisi token untuk authorisasi yang didapat dari login"
								}
							],
							"variable": [
								{
									"description": "Masukkan id_movies yang mau dihapus",
									"key": "id_movies",
									"value": "M0001"
								}
							]
						},
						"description": "**Deskripsi**\n\nMenghapus film yang diinginkan. Dan hanya yang memiliki akses admin yang dapat menghapus"
					},
					"response": []
				}
			],
			"description": "Get, Post, Put, Delete, Movies",
			"event": [
				{
					"listen": "prerequest",
					"script": {
						"id": "d917aa28-ce79-4200-9c85-084b1f342e3a",
						"type": "text/javascript",
						"exec": [
							""
						]
					}
				},
				{
					"listen": "test",
					"script": {
						"id": "5f82ca14-2e5f-4c11-9cf0-eb522332b900",
						"type": "text/javascript",
						"exec": [
							""
						]
					}
				}
			],
			"protocolProfileBehavior": {}
		},
		{
			"name": "Actors",
			"item": [
				{
					"name": "get actors",
					"protocolProfileBehavior": {
						"disableBodyPruning": true
					},
					"request": {
						"method": "GET",
						"header": [
							{
								"key": "Content-Type",
								"name": "Content-Type",
								"type": "text",
								"value": "application/json"
							}
						],
						"body": {
							"mode": "raw",
							"raw": "",
							"options": {
								"raw": {
									"language": "json"
								}
							}
						},
						"url": {
							"raw": "{{url}}actor/:id_aktor?api_key=token",
							"host": [
								"{{url}}actor"
							],
							"path": [
								":id_aktor"
							],
							"query": [
								{
									"key": "api_key",
									"value": "token",
									"description": "Berisi token untuk authorisasi yang didapat dari login"
								}
							],
							"variable": [
								{
									"key": "id_aktor",
									"value": "A0004",
									"description": "Masukkan id_aktor terkait"
								}
							]
						},
						"description": "**Deskripsi**\n\nMenampilkan data aktor tsb. secara detail termasuk semua deskripsinya, film-film yang diperankan + detail dari OMDb, berita terkait dengan aktor tsb."
					},
					"response": []
				},
				{
					"name": "get actors - with search",
					"protocolProfileBehavior": {
						"disableBodyPruning": true
					},
					"request": {
						"method": "GET",
						"header": [
							{
								"key": "Content-Type",
								"name": "Content-Type",
								"type": "text",
								"value": "application/json"
							}
						],
						"body": {
							"mode": "raw",
							"raw": "",
							"options": {
								"raw": {
									"language": "json"
								}
							}
						},
						"url": {
							"raw": "{{url}}actor?api_key=token&paging=0",
							"host": [
								"{{url}}actor"
							],
							"query": [
								{
									"key": "api_key",
									"value": "token",
									"description": "Berisi token untuk authorisasi yang didapat dari login"
								},
								{
									"key": "kewarganegaraan",
									"value": "US",
									"description": "Masukkan kewarganegaraan artis yang ingin dicari",
									"disabled": true
								},
								{
									"key": "tinggi_badan",
									"value": "160",
									"description": "Masukkan min tinggi badan artis yang ingin dicari",
									"disabled": true
								},
								{
									"key": "nama_aktor",
									"value": "Chris",
									"description": "Masukkan nama aktor",
									"disabled": true
								},
								{
									"key": "jenis_kelamin",
									"value": "L",
									"description": "Masukkan jenis kelamin",
									"disabled": true
								},
								{
									"key": "paging",
									"value": "0"
								}
							]
						},
						"description": "**Deskripsi**\n\nMenampilkan biodata aktor tersebut berdasarkan nama-nama terkait. Secara detail termasuk semua deskripsinya, film-film yang diperankan + detail dari OMDb, berita terkait dengan aktor tsb."
					},
					"response": []
				},
				{
					"name": "post actors",
					"request": {
						"method": "POST",
						"header": [
							{
								"key": "Content-Type",
								"name": "Content-Type",
								"value": "application/json",
								"type": "text"
							}
						],
						"body": {
							"mode": "raw",
							"raw": "{\n\t\"nama_aktor\":\"Molen\",\n\t\"jenis_kelamin\":\"L\",\n\t\"tempat_lahir\":\"Surabaya\",\n\t\"tanggal_lahir\":\"12/11/2019\",\n\t\"tahun_debut\":\"2000\",\n\t\"kewarganegaraan\":\"Indonesia\",\n\t\"jumlah_anak\":\"2\",\n\t\"tinggi_badan\":\"3\",\n\t\"url_foto\":\"http://artispanasindo.com/molen.jpeg\"\n}",
							"options": {
								"raw": {
									"language": "json"
								}
							}
						},
						"url": {
							"raw": "{{url}}actor?api_key=token",
							"host": [
								"{{url}}actor"
							],
							"query": [
								{
									"key": "api_key",
									"value": "token",
									"description": "Berisi token untuk authorisasi yang didapat dari login"
								}
							]
						},
						"description": "**Deskripsi**\n\nMemasukkan biodata aktor-aktor seperti : \n1. nama_aktor\n2. jenis_kelamin\n3. tempat_tinggal\n4. tanggal_lahir\n5. tahun_debut\n6. kewarganegaraan\n7. jumlah_anak\n8. tinggi_badan\n9. url_foto\n10. peran"
					},
					"response": []
				},
				{
					"name": "put actors",
					"request": {
						"method": "PUT",
						"header": [
							{
								"key": "Content-Type",
								"name": "Content-Type",
								"value": "application/json",
								"type": "text"
							}
						],
						"body": {
							"mode": "raw",
							"raw": "{\n\t\"nama_aktor\":\"Molen\",\n\t\"jenis_kelamin\":\"L\",\n\t\"tempat_lahir\":\"Jln. Jeruk 20 B, Surabaya\",\n\t\"tanggal_lahir\":\"12/11/2019\",\n\t\"tahun_debut\":\"2000\",\n\t\"kewarganegaraan\":\"Indonesia\",\n\t\"jumlah_anak\":\"2\",\n\t\"tinggi_badan\":\"3\",\n\t\"url_foto\":\"http://artispanasindo.com/molen.jpeg\"\n}",
							"options": {
								"raw": {
									"language": "json"
								}
							}
						},
						"url": {
							"raw": "{{url}}actor/:id_aktor?api_key=token",
							"host": [
								"{{url}}actor"
							],
							"path": [
								":id_aktor"
							],
							"query": [
								{
									"key": "api_key",
									"value": "token",
									"description": "Berisi token untuk authorisasi yang didapat dari login"
								}
							],
							"variable": [
								{
									"key": "id_aktor",
									"value": "A001",
									"description": "Masukkan id_aktor terkait"
								}
							]
						},
						"description": "**Deskripsi**\n\nMengubah data aktor yang diinginkan berdasarkan id_aktor yang ada di parameter yang diinputkan"
					},
					"response": []
				},
				{
					"name": "delete actors",
					"request": {
						"method": "DELETE",
						"header": [],
						"url": {
							"raw": "{{url}}actor/:id_aktor?api_key=token",
							"host": [
								"{{url}}actor"
							],
							"path": [
								":id_aktor"
							],
							"query": [
								{
									"key": "api_key",
									"value": "token",
									"description": "Berisi token untuk authorisasi yang didapat dari login"
								}
							],
							"variable": [
								{
									"key": "id_aktor",
									"value": "A0022",
									"description": "Masukkan id_aktor yang terkait"
								}
							]
						},
						"description": "**Deskripsi**\n\nMenghapus data aktor yang diinginkan berdasarkan id_aktor yang ada di parameter yang diinputkan"
					},
					"response": []
				},
				{
					"name": "post cast",
					"request": {
						"method": "POST",
						"header": [
							{
								"key": "Content-Type",
								"name": "Content-Type",
								"value": "application/json",
								"type": "text"
							}
						],
						"body": {
							"mode": "raw",
							"raw": "{\n\t\"id_movie\":\"M0406\"\n}",
							"options": {
								"raw": {
									"language": "json"
								}
							}
						},
						"url": {
							"raw": "{{url}}actor/cast/:id_aktor?api_key=token",
							"host": [
								"{{url}}actor"
							],
							"path": [
								"cast",
								":id_aktor"
							],
							"query": [
								{
									"key": "api_key",
									"value": "token",
									"description": "Berisi token untuk authorisasi yang didapat dari login"
								}
							],
							"variable": [
								{
									"key": "id_aktor",
									"value": "A1828",
									"description": "Masukkan id_aktor yang terkait"
								}
							]
						},
						"description": "**Deskripsi**\n\nUntuk memasukkan data aktor memerankan film."
					},
					"response": []
				},
				{
					"name": "delete cast",
					"request": {
						"method": "DELETE",
						"header": [],
						"url": {
							"raw": "{{url}}actor/cast/:id_aktor/:id_movie?api_key=token",
							"host": [
								"{{url}}actor"
							],
							"path": [
								"cast",
								":id_aktor",
								":id_movie"
							],
							"query": [
								{
									"key": "api_key",
									"value": "token",
									"description": "Berisi token untuk authorisasi yang didapat dari login"
								}
							],
							"variable": [
								{
									"key": "id_aktor",
									"value": "A1828",
									"description": "Masukkan id_aktor yang terkait"
								},
								{
									"key": "id_movie",
									"value": "M0406",
									"description": "Masukkan id_movie yang terkait"
								}
							]
						},
						"description": "**Deskripsi**\n\nUntuk menghapus apabila aktor tersebut tidak pernah memerankan film tersebut"
					},
					"response": []
				}
			],
			"description": "Get, Post, Put, Delete Actors",
			"protocolProfileBehavior": {}
		}
	],
	"event": [
		{
			"listen": "prerequest",
			"script": {
				"id": "cea875c3-e60b-4693-a01e-4c41302d7f56",
				"type": "text/javascript",
				"exec": [
					""
				]
			}
		},
		{
			"listen": "test",
			"script": {
				"id": "a3d1dc86-1e0b-49b0-a933-338de66de582",
				"type": "text/javascript",
				"exec": [
					""
				]
			}
		}
	],
	"variable": [
		{
			"id": "ff4b7dff-4e9f-4378-a5be-58134e966981",
			"key": "url",
			"value": "http://localhost:3000/api/",
			"type": "string"
		}
	],
	"protocolProfileBehavior": {}
}